How big are the big 4?
…
Clearly, 2007 - 2017 has a higher proportion of big winners! Thats over a 25% gap. But an argument could be made for the way the years have been aggregated. It could be that 2007 - 2017 is where the big 3 dominated. But cutting greats careers in half would be doing disservice to their dominance. For instance, Connors played from 1972 to the 90s. His career would be split if we aggregate the years from 1977 - 1987 The proper thing to do would be to find out the most dominant 10 years in the big 3s long careers and compare it with another 10 year period where 3 superior players have dominated the sport.

So lets for each year from 1968, lets aggregate 10 following years. That means 1968 - 1977 would be a 10 year aggregation, 1969 - 1978 would be another and so on. For each aggreation, lets calculate the average number of slams won by the top 3 players.

## # A tibble: 40 x 2
##     year avg_slams
##    <dbl>     <dbl>
##  1  2004 11.666667
##  2  2005 11.333333
##  3  2006 11.333333
##  4  2003 11.000000
##  5  2007 10.666667
##  6  2002 10.000000
##  7  2000  8.000000
##  8  1974  7.666667
##  9  1999  7.666667
## 10  1975  7.333333
## # ... with 30 more rows
…
